<?xml version="1.0" encoding="utf-8"?>
<!-- Generator: Adobe Illustrator 19.0.0, SVG Export Plug-In . SVG Version: 6.00 Build 0)  -->
<svg version="1.1" id="Layer_1" xmlns="http://www.w3.org/2000/svg" xmlns:xlink="http://www.w3.org/1999/xlink" x="0px" y="0px"
	 viewBox="0 0 500 500" style="enable-background:new 0 0 500 500;" xml:space="preserve">
<style type="text/css">
	.st0{stroke:#FFFFFF;stroke-miterlimit:10;}
	.st1{fill:#FFFFFF;}
</style>
<circle id="XMLID_1_" class="st0" cx="252.1" cy="249.5" r="139.8"/>
<g id="XMLID_9_">
	<path id="XMLID_7_" class="st1" d="M167.9,295.4c1.3,0,2.4,0,3.4,0c15.2,0,30.4,0,45.6,0c3.9,0,4.8-0.9,4.8-4.7
		c0-14.5,0-29.1,0-43.6c0-3.3-1-4.2-4.3-4.2c-15.3,0-30.6,0-45.9,0c-1.1,0-2.1,0-3,0c-0.2-0.3-0.5-0.4-0.5-0.6
		c0-8.7-0.3-17.5,0.2-26.2c0.5-8.1,8.5-14.4,17.9-15c1.1-0.1,2.1,0,3.2,0c45.1,0,90.2,0,135.4,0c6.3,0,11.9,1.6,16.4,6.4
		c2.8,3,4.4,6.6,4.4,10.7c0,34,0.1,67.9,0,101.9c0,9.4-8.4,16.9-18.7,17c-6.5,0.1-13.1,0-19.6,0c-39.8,0-79.7,0-119.5,0
		c-7.9,0-14.2-3.2-17.9-10.4c-1-1.9-1.6-4.2-1.6-6.3C167.8,312.2,167.9,304,167.9,295.4z"/>
	<path id="XMLID_13_" class="st1" d="M215.5,249.2c0,13.3,0,26.5,0,39.8c-19,0-37.9,0-57,0c0-13.3,0-26.5,0-39.8
		C177.6,249.2,196.5,249.2,215.5,249.2z M189,269.1c0,4.8,3.8,8.7,8.5,8.7c4.7,0,8.5-3.9,8.6-8.7c0.1-4.8-4-8.9-8.7-8.9
		C192.7,260.3,188.9,264.2,189,269.1z"/>
	<path id="XMLID_4_" class="st1" d="M308.1,162.2c4.4,11,8.8,21.8,13.2,32.8c-3.7,0-7.1,0.1-10.5-0.1c-0.7,0-1.6-0.8-2-1.5
		c-0.9-1.7-1.5-3.5-2.2-5.4c-6.8,1.9-11.9-0.3-15.3-6.6c-8.2,3.5-16.5,6.7-24.5,10.4c-5.2,2.4-10.4,3.5-16.1,3.3
		c-6.3-0.3-12.6-0.1-19-0.7C257.1,183.8,282.4,173.1,308.1,162.2z"/>
	<path id="XMLID_3_" class="st1" d="M220.8,191.6c20.9-13.8,41.8-27.6,63-41.6c2.7,4.2,5.2,8.2,7.9,12.5
		c-23.6,10-47.1,19.9-70.6,29.8C221,192,220.9,191.8,220.8,191.6z"/>
	<path id="XMLID_2_" class="st1" d="M189,269.1c0-4.8,3.7-8.8,8.4-8.8c4.8-0.1,8.8,4,8.7,8.9c-0.1,4.8-3.9,8.7-8.6,8.7
		C192.8,277.8,189,273.9,189,269.1z"/>
</g>
</svg>
